<?xml version="1.0" standalone="no"?>
<!DOCTYPE svg PUBLIC "-//W3C//DTD SVG 20010904//EN"
 "http://www.w3.org/TR/2001/REC-SVG-20010904/DTD/svg10.dtd">
<svg version="1.0" xmlns="http://www.w3.org/2000/svg"
 width="659.000000pt" height="659.000000pt" viewBox="0 0 659.000000 659.000000"
 preserveAspectRatio="xMidYMid meet">
<metadata>
Created by potrace 1.11, written by Peter Selinger 2001-2013
</metadata>
<g transform="translate(0.000000,659.000000) scale(0.100000,-0.100000)"
fill="#000000" stroke="none">
<path d="M0 6233 l1 -358 25 60 c27 65 56 173 74 275 11 63 33 98 115 186 5 6
33 37 60 69 28 32 62 72 77 88 15 17 25 33 22 36 -2 3 -17 -11 -33 -30 -16
-19 -37 -44 -47 -55 -11 -12 -41 -48 -69 -80 -27 -32 -63 -74 -80 -92 l-30
-33 2 145 3 146 -60 0 -60 0 0 -357z"/>
<path d="M546 6493 c-20 -54 -43 -121 -51 -149 -15 -53 -52 -228 -53 -254 -11
-251 -6 -235 -111 -341 -104 -103 -232 -177 -304 -174 l-27 1 0 -122 0 -122
57 4 c98 8 241 51 341 104 61 32 94 45 97 37 47 -133 65 -178 108 -261 109
-213 271 -386 430 -460 116 -53 278 -54 443 -1 245 78 476 250 583 433 l33 58
97 -48 c53 -26 159 -70 236 -99 170 -62 163 -60 355 -111 126 -33 173 -41 251
-42 89 -1 97 1 127 25 17 15 28 29 25 32 -3 3 12 9 33 12 22 4 55 11 74 16 51
13 60 11 60 -11 0 -11 4 -20 10 -20 6 0 6 9 0 24 -8 21 -5 25 29 38 23 9 44
12 53 7 28 -16 184 -57 243 -64 149 -19 291 -13 463 19 73 14 274 87 367 134
79 39 114 51 165 56 172 15 279 49 357 112 23 19 48 34 57 34 9 0 16 5 16 11
0 5 -5 7 -12 3 -6 -4 0 8 14 27 69 91 106 200 124 364 9 79 52 155 118 207 72
56 163 145 198 195 l30 42 55 -25 c31 -13 58 -24 60 -24 3 0 1 -30 -3 -67 -26
-235 23 -463 133 -616 19 -27 32 -51 30 -54 -3 -2 -47 -7 -99 -10 -51 -3 -95
-8 -98 -11 -3 -2 45 -2 106 2 l110 6 35 -31 c44 -41 124 -78 189 -88 124 -20
339 19 458 82 l32 18 0 599 0 600 -359 0 -358 0 -50 -102 c-50 -101 -97 -225
-107 -282 -3 -16 -7 -31 -10 -33 -8 -9 -106 40 -106 53 0 6 7 17 15 24 8 7 15
16 15 21 0 5 11 27 24 48 13 21 40 76 59 122 33 81 37 85 90 114 31 16 54 31
51 34 -2 2 -27 -8 -54 -23 l-51 -28 7 26 6 26 -908 0 -909 0 55 -50 c57 -52
194 -149 268 -190 40 -23 59 -49 26 -36 -13 5 -14 4 -6 -7 9 -10 6 -34 -12
-98 -13 -46 -30 -110 -37 -142 l-12 -58 -41 7 c-126 21 -348 121 -460 206 -73
56 -95 85 -57 75 11 -3 21 -1 21 5 0 6 -12 8 -27 5 -23 -4 -35 2 -70 40 -45
48 -103 131 -138 198 l-22 40 -511 3 -511 2 5 -27 c3 -16 11 -56 18 -91 7 -34
10 -64 8 -67 -3 -3 -16 -5 -29 -5 -13 0 -23 -4 -23 -9 0 -6 12 -6 29 -1 27 8
30 6 36 -21 4 -16 7 -31 7 -33 0 -3 6 -22 13 -41 10 -32 9 -44 -10 -98 -22
-60 -55 -200 -72 -300 l-8 -47 -100 51 c-55 28 -104 54 -108 58 -4 4 -21 57
-37 117 -15 60 -42 141 -58 181 l-29 71 61 11 c34 6 107 18 164 27 56 9 102
21 102 26 0 5 -4 7 -8 4 -5 -3 -78 -17 -162 -31 -123 -21 -155 -23 -161 -13
-8 12 -13 43 -10 61 1 4 3 24 5 45 2 20 7 58 11 85 l7 47 -291 0 -291 0 -11
-27 c-53 -134 -85 -243 -92 -316 -3 -27 -7 -50 -9 -52 -2 -2 -44 -7 -93 -10
-50 -3 -104 -8 -121 -10 l-32 -5 14 54 c18 71 75 211 119 293 19 36 35 68 35
70 0 1 -159 3 -354 3 l-353 0 -37 -97z m5715 -390 c0 -16 2 -39 4 -53 4 -27 8
-187 6 -232 -1 -17 -7 -28 -15 -28 -25 0 -37 150 -21 265 5 33 8 63 7 68 -1 4
3 7 8 7 6 0 10 -12 11 -27z m-2682 -167 c111 -74 331 -171 427 -190 10 -2 46
-11 80 -20 33 -8 71 -17 84 -19 18 -3 25 -10 25 -28 0 -43 -12 -55 -68 -68
l-55 -12 -274 91 c-362 120 -328 105 -322 148 2 21 5 65 6 99 1 41 5 60 12 55
6 -4 44 -29 85 -56z m-2278 26 c5 -15 12 -34 16 -42 3 -8 7 -17 8 -20 1 -3 4
-12 8 -20 20 -50 18 -51 -113 -85 -69 -18 -127 -31 -131 -30 -3 2 -6 49 -8
104 -3 114 -7 108 94 113 28 2 65 4 83 5 27 2 35 -3 43 -25z m986 -74 c69 -36
102 -57 98 -66 -3 -8 -5 -28 -5 -45 0 -26 -14 -46 -66 -100 l-67 -69 -24 28
c-28 33 -31 43 -38 159 -3 50 -7 102 -10 118 -3 15 -2 27 2 27 4 0 53 -24 110
-52z m-914 -111 c2 -12 20 -64 40 -114 19 -51 31 -93 26 -93 -27 0 -316 74
-326 84 -6 6 -14 30 -18 53 l-7 42 54 15 c123 35 204 52 214 44 7 -5 14 -19
17 -31z m2424 -97 c139 -46 250 -86 247 -89 -3 -3 -116 -36 -251 -73 l-245
-67 -57 37 c-31 20 -59 40 -64 43 -4 3 2 46 12 95 11 49 23 105 26 125 l5 37
38 -12 c20 -6 151 -49 289 -96z m2473 78 c0 -19 -2 -20 -10 -8 -13 19 -13 30
0 30 6 0 10 -10 10 -22z m-3892 -143 c1 -58 -2 -105 -7 -105 -10 0 -92 67
-103 84 -4 6 16 35 50 69 31 31 57 57 57 57 1 0 2 -47 3 -105z m-1069 -26
c141 -33 144 -34 157 -65 30 -73 108 -92 163 -41 20 20 31 23 49 16 20 -8 22
-13 16 -46 -22 -123 -73 -277 -116 -350 l-20 -33 -59 31 c-73 39 -166 123
-231 208 -49 64 -129 219 -142 273 -3 14 -9 33 -12 42 -5 13 -1 14 22 6 16 -5
94 -23 173 -41z m2885 -3 c7 -26 5 -28 -18 -22 -14 3 -38 11 -53 17 l-28 12
45 12 c25 6 45 11 46 11 1 -1 4 -14 8 -30z m9 -69 c3 -22 -1 -30 -17 -37 -12
-4 -46 -22 -76 -40 -145 -86 -194 -107 -235 -103 -76 8 -230 57 -284 92 l-23
15 43 13 c24 7 69 20 99 27 30 8 125 34 210 58 l155 44 62 -20 c54 -17 62 -23
66 -49z m-2528 -5 c-8 -8 -25 10 -19 20 4 6 9 5 15 -3 4 -7 6 -15 4 -17z
m2548 -79 l14 -48 -56 -17 c-82 -26 -253 -46 -221 -26 24 14 245 138 247 138
1 0 9 -21 16 -47z"/>
<path d="M4110 6308 c0 -4 7 -8 15 -8 8 0 15 4 15 8 0 5 -7 9 -15 9 -8 0 -15
-4 -15 -9z"/>
<path d="M4155 6310 c-3 -5 -1 -10 4 -10 6 0 11 5 11 10 0 6 -2 10 -4 10 -3 0
-8 -4 -11 -10z"/>
<path d="M4186 6312 c-3 -5 1 -9 9 -9 8 0 12 4 9 9 -3 4 -7 8 -9 8 -2 0 -6 -4
-9 -8z"/>
<path d="M4250 6309 c0 -5 5 -7 10 -4 6 3 10 8 10 11 0 2 -4 4 -10 4 -5 0 -10
-5 -10 -11z"/>
<path d="M3708 6303 c7 -3 16 -2 19 1 4 3 -2 6 -13 5 -11 0 -14 -3 -6 -6z"/>
<path d="M3753 6303 c9 -2 25 -2 35 0 9 3 1 5 -18 5 -19 0 -27 -2 -17 -5z"/>
<path d="M3863 6303 c32 -2 81 -2 110 0 29 2 3 3 -58 3 -60 0 -84 -1 -52 -3z"/>
<path d="M4068 6303 c6 -2 18 -2 25 0 6 3 1 5 -13 5 -14 0 -19 -2 -12 -5z"/>
<path d="M5635 5400 c3 -5 8 -10 11 -10 2 0 4 5 4 10 0 6 -5 10 -11 10 -5 0
-7 -4 -4 -10z"/>
<path d="M5455 5390 c-3 -5 -1 -10 4 -10 6 0 11 5 11 10 0 6 -2 10 -4 10 -3 0
-8 -4 -11 -10z"/>
<path d="M5485 5390 c4 -6 11 -8 16 -5 14 9 11 15 -7 15 -8 0 -12 -5 -9 -10z"/>
<path d="M5543 5393 c15 -2 39 -2 55 0 15 2 2 4 -28 4 -30 0 -43 -2 -27 -4z"/>
<path d="M5243 5383 c-40 -2 -73 -7 -73 -11 0 -10 133 -2 145 9 5 5 7 8 5 7
-3 -1 -38 -4 -77 -5z"/>
<path d="M5368 5383 c12 -2 32 -2 45 0 12 2 2 4 -23 4 -25 0 -35 -2 -22 -4z"/>
<path d="M3362 4970 c0 -14 2 -19 5 -12 2 6 2 18 0 25 -3 6 -5 1 -5 -13z"/>
<path d="M6554 4893 c-10 -10 -78 -65 -149 -122 -72 -58 -196 -158 -277 -224
l-147 -119 -43 7 c-24 4 -52 9 -63 11 -11 2 -33 6 -50 8 -16 2 -73 12 -126 21
-53 10 -109 15 -124 11 -90 -23 -103 -162 -17 -194 25 -10 103 -24 205 -38 23
-4 44 -10 47 -13 3 -4 23 -8 45 -8 22 0 72 -4 112 -8 l72 -8 62 47 c35 25 68
46 75 46 7 0 -12 -33 -42 -72 -30 -40 -73 -110 -95 -155 -23 -46 -45 -83 -49
-83 -4 0 -13 6 -19 14 -17 20 -167 119 -228 150 -29 14 -53 30 -53 35 0 5 22
12 50 16 27 4 52 10 55 15 2 4 -28 1 -67 -7 -67 -14 -74 -14 -137 6 -109 35
-235 47 -347 33 -109 -14 -242 -49 -359 -95 -87 -34 -100 -37 -100 -22 -1 6
-13 48 -27 95 -15 47 -38 124 -52 171 -14 47 -34 93 -43 101 -26 23 -626 298
-660 302 -20 3 -43 -6 -78 -31 -28 -19 -60 -41 -73 -50 -20 -14 -34 -12 -200
33 -196 53 -209 55 -234 42 -15 -7 -19 -2 -24 32 -4 22 -10 43 -14 45 -4 3 -3
-15 2 -40 8 -38 7 -48 -10 -70 -11 -13 -21 -23 -23 -21 -2 2 -19 6 -37 9 -43
7 -82 -26 -91 -75 l-6 -37 -80 35 c-44 20 -99 45 -123 55 -23 11 -59 20 -79
21 -71 3 -119 -91 -77 -151 9 -13 42 -34 73 -48 112 -49 167 -74 194 -86 28
-12 29 -13 10 -35 l-18 -23 -262 65 c-278 70 -328 77 -362 49 -48 -39 -41
-135 12 -161 22 -11 347 -94 499 -127 42 -9 83 -24 91 -33 8 -9 63 -111 122
-227 59 -115 112 -214 116 -219 14 -15 11 -36 -4 -30 -24 9 -201 10 -252 2
-27 -5 -63 -11 -80 -14 -54 -10 -228 -71 -318 -112 -122 -57 -266 -144 -350
-213 l-71 -58 -86 198 c-47 108 -89 205 -95 213 -10 16 -533 330 -588 353 -41
17 -60 10 -226 -84 -79 -44 -146 -81 -148 -81 -3 0 -123 66 -266 147 -144 80
-287 160 -317 176 -30 17 -64 36 -75 44 -11 7 -28 13 -38 13 -10 0 -35 18 -57
40 -49 50 -83 59 -129 34 -44 -23 -65 -74 -47 -114 6 -14 85 -113 176 -220 91
-107 172 -204 181 -215 10 -11 42 -50 73 -86 l56 -66 -60 -129 c-33 -71 -60
-138 -60 -149 1 -35 7 -43 193 -259 104 -121 105 -123 64 -131 -91 -20 -290
-96 -420 -161 -180 -90 -291 -186 -351 -304 l-36 -72 0 -1244 0 -1244 253 0
252 1 -107 102 -108 102 44 62 c55 79 112 195 146 297 l27 80 666 222 c585
195 671 222 699 213 18 -5 84 -7 148 -5 258 10 556 104 617 194 24 36 25 71 8
284 l-6 76 58 40 c32 21 63 38 68 36 6 -1 66 -20 134 -40 l123 -38 30 -66 c72
-158 102 -213 120 -218 10 -2 18 -8 18 -12 0 -4 14 -10 30 -14 17 -3 183 -55
368 -116 186 -60 345 -110 355 -110 27 0 52 16 92 57 l35 36 0 -26 c0 -15 4
-27 8 -27 5 0 7 13 4 30 -4 26 7 41 104 138 95 95 122 116 213 163 62 32 110
64 120 80 l16 26 145 -58 c143 -56 145 -57 141 -86 -2 -15 -4 -39 -5 -52 -2
-19 -18 -35 -67 -66 -189 -117 -342 -270 -488 -487 -28 -42 -51 -79 -51 -82 0
-4 -11 -23 -23 -44 -39 -62 -103 -231 -130 -342 -32 -133 -39 -174 -42 -272
l-3 -78 254 0 c140 0 254 3 254 8 0 4 -4 23 -10 42 -5 19 -11 46 -14 60 -2 14
-9 54 -16 89 -13 70 -17 288 -7 362 6 46 41 185 56 224 48 127 116 209 205
250 94 43 95 43 121 -55 51 -202 167 -432 313 -625 50 -66 191 -209 262 -267
l45 -37 -53 -22 c-29 -12 -50 -24 -48 -26 2 -3 26 5 51 16 58 26 73 26 105 1
24 -19 43 -20 357 -20 182 0 333 4 335 8 6 16 183 144 276 199 l92 55 0 434 0
434 -27 -17 c-37 -24 -127 -86 -133 -93 -33 -34 -39 -33 -87 14 -26 26 -74 68
-107 93 -56 41 -61 49 -67 92 l-6 46 -1 -42 -2 -43 -62 38 c-86 52 -213 108
-332 147 -67 22 -93 34 -80 38 32 10 258 70 279 74 26 6 209 -169 193 -185 -6
-6 -6 -12 1 -16 6 -4 11 0 11 8 0 22 9 20 60 -14 25 -17 77 -43 116 -60 75
-31 229 -71 239 -62 10 11 5 452 -5 452 -23 0 -127 76 -184 134 -67 68 -143
172 -133 182 3 4 30 -4 59 -18 29 -14 80 -36 113 -49 33 -13 80 -34 105 -45
l45 -22 3 111 c1 61 -1 114 -5 118 -4 4 -100 46 -212 93 -182 76 -229 101
-216 114 6 7 144 -36 208 -64 57 -25 148 -74 200 -108 l27 -18 0 691 0 691
-27 -6 c-24 -4 -32 1 -52 32 -21 31 -25 46 -23 107 6 178 47 424 91 540 11 29
16 507 6 507 -37 0 -260 -149 -330 -219 -28 -28 -57 -51 -65 -51 -11 0 -9 5 6
18 12 9 68 55 125 102 57 46 106 87 109 90 3 3 23 18 45 35 22 16 54 42 70 57
17 15 33 28 38 28 4 0 7 59 7 130 0 72 -4 130 -8 130 -5 0 -17 -8 -28 -17z
m-2934 -324 c0 -14 -26 -11 -39 5 -9 11 -6 12 14 8 14 -2 25 -8 25 -13z m305
-79 c2 -4 -24 -15 -58 -25 -34 -10 -69 -23 -77 -29 -30 -20 5 13 44 42 36 27
78 33 91 12z m498 -97 c79 -88 118 -128 108 -108 -6 11 -27 38 -48 61 -72 76
-73 79 -16 50 45 -22 54 -32 64 -68 6 -24 12 -50 13 -58 2 -8 7 -26 13 -40 17
-41 56 -180 52 -184 -2 -2 -48 4 -103 13 l-98 16 -84 162 -84 162 53 20 c28
11 60 20 70 20 10 1 37 -20 60 -46z m-1016 -39 c68 -29 67 -27 98 -154 9 -36
19 -89 21 -117 3 -29 9 -63 14 -75 9 -20 10 -19 4 7 -10 54 6 20 26 -53 19
-70 26 -143 14 -155 -3 -3 -18 -1 -33 4 -19 7 -37 28 -60 72 -155 297 -211
407 -211 418 0 14 48 79 58 79 4 0 35 -12 69 -26z m738 -190 l87 -171 -82
-124 c-46 -68 -84 -125 -85 -127 -2 -2 -36 13 -211 93 -66 30 -75 57 -57 180
11 82 20 151 28 213 1 12 5 25 9 29 5 6 219 82 222 79 1 0 41 -78 89 -172z
m-3278 -311 c65 -38 131 -74 145 -82 25 -13 44 -39 35 -48 -2 -2 -48 13 -103
32 -67 24 -106 44 -122 63 -52 61 -83 102 -79 102 3 0 59 -30 124 -67z m763
-48 c63 -38 156 -92 205 -121 l90 -53 81 -188 c52 -119 78 -192 72 -199 -5 -7
-49 -37 -98 -68 l-89 -57 -88 47 c-58 32 -101 63 -127 93 -21 25 -55 64 -75
86 -20 22 -76 87 -125 143 -65 77 -100 109 -132 123 -24 10 -44 23 -44 28 0 5
-14 40 -31 76 -17 37 -28 70 -24 73 8 9 83 53 155 91 54 29 55 29 85 11 17
-10 82 -48 145 -85z m3630 -41 c0 -3 -102 37 -110 43 -2 2 2 8 10 13 9 6 28
-1 57 -22 24 -17 43 -33 43 -34z m-341 -76 l35 -14 -139 -106 c-77 -59 -141
-105 -143 -103 -4 4 61 161 94 226 l24 49 48 -19 c26 -10 62 -25 81 -33z m66
-64 c25 -46 55 -61 135 -64 36 -1 85 -3 110 -4 25 -1 53 -6 62 -11 9 -6 72
-62 139 -125 67 -63 127 -119 133 -125 7 -5 34 -31 62 -56 43 -40 61 -49 127
-63 100 -22 114 -43 122 -177 3 -52 7 -103 9 -114 1 -10 -5 -33 -15 -50 -27
-45 -74 -173 -93 -252 -17 -66 -20 -72 -56 -88 l-39 -18 -453 152 c-589 198
-535 177 -536 212 -1 43 -35 84 -81 97 -30 10 -39 17 -38 33 1 19 6 20 72 16
l70 -5 -67 11 c-67 10 -68 11 -68 41 0 17 5 58 10 91 6 33 12 76 15 95 11 80
54 213 74 226 11 8 26 20 33 27 7 7 60 48 118 92 58 43 107 83 108 87 8 18 29
6 47 -28z m-3999 -89 c71 -25 140 -51 154 -58 17 -9 39 -44 71 -115 50 -110
67 -134 108 -155 32 -16 147 -79 216 -118 28 -15 60 -38 71 -51 20 -21 20 -26
8 -55 -10 -24 -30 -41 -74 -63 -70 -36 -75 -35 -194 44 -86 57 -178 96 -226
96 -24 0 -43 17 -122 108 -51 59 -95 109 -98 112 -6 6 -101 119 -117 141 -10
13 -8 25 11 65 13 27 26 59 30 72 4 12 13 22 20 22 8 0 71 -20 142 -45z m2960
-45 c35 -11 43 -18 57 -56 l16 -44 -67 51 c-37 28 -71 56 -77 61 -10 11 -8 10
71 -12z m-1097 -176 c246 -73 569 -307 777 -564 66 -81 180 -248 173 -254 -2
-2 -113 -83 -246 -180 -205 -150 -253 -180 -306 -195 l-63 -19 -182 177 -182
176 -6 160 c-9 280 -7 265 -46 299 -19 17 -49 43 -65 57 l-31 26 24 94 c23 89
62 215 71 232 6 11 23 9 82 -9z m-1269 -423 c-11 -27 -14 -29 -41 -19 -16 5
-29 13 -29 17 0 8 73 41 79 35 2 -2 -2 -17 -9 -33z m253 0 c14 -6 46 -43 76
-91 l52 -81 -12 -57 c-7 -31 -15 -60 -19 -65 -6 -7 -180 158 -180 172 0 19 43
131 50 131 5 0 20 -4 33 -9z m3198 -207 c189 -63 408 -136 487 -162 78 -26
142 -50 142 -55 0 -5 -9 -5 -20 -2 -11 4 -197 53 -413 111 -593 157 -592 157
-595 159 -2 2 20 28 54 64 1 0 156 -51 345 -115z m-66 -49 c198 -53 419 -112
492 -131 195 -51 187 -42 96 -99 -83 -53 -212 -153 -278 -216 -22 -21 -67 -50
-100 -63 -33 -14 -125 -54 -205 -90 -80 -35 -146 -63 -147 -62 -2 1 -8 27 -14
57 -6 30 -13 65 -15 78 -17 83 -126 375 -184 493 -16 31 -29 72 -30 90 -3 45
-2 48 13 43 6 -2 174 -48 372 -100z m-4059 -322 c-1 -2 16 -23 39 -47 64 -66
222 -282 415 -566 274 -403 331 -481 397 -546 l61 -61 -646 -216 c-356 -120
-651 -217 -655 -217 -5 0 -6 9 -2 19 14 46 63 305 70 374 3 29 7 63 10 77 2
14 7 59 10 100 3 41 8 95 10 120 7 79 15 183 20 270 3 47 7 121 11 165 3 44 7
103 9 130 4 61 15 189 20 230 2 17 6 57 10 90 7 71 14 97 23 91 4 -2 39 -7 77
-10 39 -4 78 -9 88 -12 9 -3 17 -1 17 4 0 5 -6 9 -12 9 -37 1 -164 16 -171 20
-5 3 -5 24 -2 47 23 136 15 134 116 26 49 -51 87 -95 85 -97z m1831 -47 l58
-59 -75 58 c-41 32 -77 60 -79 61 -2 2 6 2 17 1 12 0 47 -28 79 -61z m1038
-34 c-105 -98 -169 -147 -192 -149 -22 -2 -20 2 19 32 96 74 203 154 208 154
3 0 -13 -16 -35 -37z m212 -215 c12 -62 25 -120 29 -130 4 -12 1 -17 -12 -18
-17 0 -17 -1 2 -9 13 -5 26 -27 38 -66 30 -99 59 -121 172 -125 30 -1 54 -4
54 -6 0 -11 -163 -157 -193 -173 -45 -24 -54 -25 -60 -2 -3 11 -5 8 -6 -9 -1
-20 -10 -30 -42 -44 -22 -10 -49 -29 -59 -43 l-19 -24 -153 47 c-222 67 -221
67 -243 75 -11 4 -40 14 -65 21 -101 29 -105 34 -114 154 -4 43 -15 149 -20
180 0 6 91 12 249 15 l250 6 -229 2 c-126 1 -227 4 -225 6 2 2 54 7 114 10
231 14 235 15 307 81 99 91 129 115 138 110 6 -4 10 -1 10 6 0 16 30 49 44 49
6 0 21 -51 33 -113z m1212 96 c-8 -10 -24 -27 -36 -39 -12 -11 -45 -50 -73
-85 -27 -35 -53 -68 -58 -74 -22 -28 -71 -106 -96 -155 -16 -30 -30 -56 -31
-57 -1 -2 -45 11 -99 28 l-98 30 45 29 c55 35 70 61 71 123 0 42 4 49 29 60
16 6 102 44 190 84 89 40 164 72 166 73 2 0 -3 -8 -10 -17z m280 -15 c-6 -7
34 -65 55 -79 14 -9 53 -14 126 -14 l105 0 16 -65 c37 -147 100 -295 169 -397
17 -25 29 -47 27 -49 -8 -9 -348 -95 -355 -90 -5 3 -24 8 -43 11 -19 3 -41 8
-49 10 -27 8 -123 17 -205 20 -69 2 -81 5 -90 23 -6 11 -17 27 -24 36 -10 12
-12 37 -7 99 10 144 65 297 140 390 29 37 127 118 134 112 2 -2 2 -5 1 -7z
m-2716 -112 c106 -81 157 -130 157 -150 0 -3 -38 -30 -84 -61 l-85 -56 -53 17
c-29 9 -56 20 -59 23 -12 11 -19 101 -8 101 6 0 6 6 0 18 -15 28 -19 213 -4
208 6 -3 68 -48 136 -100z m207 -252 c22 -48 39 -88 38 -90 -2 -2 -57 14 -122
34 l-118 38 78 52 c42 29 79 52 80 52 2 0 22 -39 44 -86z m-240 -25 c0 -7 -76
-59 -87 -59 -5 0 -9 22 -11 49 l-3 49 51 -16 c27 -9 50 -19 50 -23z m980 -296
c58 -18 122 -38 142 -45 42 -12 41 -28 -1 -28 -26 0 -56 11 -166 59 -22 10
-61 26 -87 36 -27 10 -48 19 -48 22 0 5 43 -6 160 -44z m177 -89 c-3 -3 -12
-4 -19 -1 -8 3 -5 6 6 6 11 1 17 -2 13 -5z m1559 -304 c203 -69 446 -211 577
-337 15 -14 27 -30 27 -33 0 -4 -24 -47 -53 -96 -29 -49 -59 -104 -66 -122
l-14 -32 -55 31 c-125 70 -273 213 -387 374 -80 113 -152 245 -133 245 8 0 54
-14 104 -30z"/>
<path d="M3559 3898 c4 -28 6 -29 9 -9 2 13 0 27 -5 32 -6 6 -7 -3 -4 -23z"/>
<path d="M3566 3845 c4 -8 8 -15 10 -15 2 0 4 7 4 15 0 8 -4 15 -10 15 -5 0
-7 -7 -4 -15z"/>
<path d="M4730 2980 c0 -4 42 -13 93 -19 50 -7 100 -15 110 -17 9 -3 17 -1 17
3 0 5 -17 10 -37 12 -21 1 -71 8 -110 15 -40 7 -73 9 -73 6z"/>
<path d="M4960 2946 c0 -2 11 -6 25 -8 14 -3 25 -1 25 3 0 5 -11 9 -25 9 -14
0 -25 -2 -25 -4z"/>
<path d="M5060 2929 c25 -4 59 -7 75 -7 22 0 18 3 -15 9 -25 4 -58 7 -75 7
-22 0 -18 -3 15 -9z"/>
<path d="M5170 2919 c0 -5 11 -9 25 -9 14 0 25 2 25 4 0 2 -11 6 -25 8 -14 3
-25 1 -25 -3z"/>
<path d="M5230 2910 c0 -5 5 -10 10 -10 6 0 10 5 10 10 0 6 -4 10 -10 10 -5 0
-10 -4 -10 -10z"/>
<path d="M5330 2894 c41 -7 89 -12 105 -12 17 0 -6 6 -50 13 -44 8 -91 13
-105 13 -14 0 9 -6 50 -14z"/>
<path d="M5470 2879 c0 -4 15 -9 34 -11 19 -2 33 -1 30 3 -5 9 -64 17 -64 8z"/>
<path d="M5555 2866 c16 -8 247 -37 252 -33 2 3 -31 10 -74 16 -101 14 -191
22 -178 17z"/>
<path d="M5825 2830 c3 -5 11 -10 16 -10 6 0 7 5 4 10 -3 6 -11 10 -16 10 -6
0 -7 -4 -4 -10z"/>
<path d="M3910 2000 c0 -5 5 -10 11 -10 5 0 7 5 4 10 -3 6 -8 10 -11 10 -2 0
-4 -4 -4 -10z"/>
<path d="M3922 1965 c0 -11 3 -29 8 -40 11 -25 11 1 0 35 -6 20 -8 21 -8 5z"/>
<path d="M3863 1863 c9 -2 23 -2 30 0 6 3 -1 5 -18 5 -16 0 -22 -2 -12 -5z"/>
<path d="M3948 1863 c6 -2 18 -2 25 0 6 3 1 5 -13 5 -14 0 -19 -2 -12 -5z"/>
<path d="M3946 1815 c4 -22 10 -47 15 -55 10 -18 0 46 -12 75 -6 13 -6 5 -3
-20z"/>
<path d="M3973 1677 c4 -10 7 -27 7 -38 0 -10 4 -19 9 -19 10 0 -3 58 -15 69
-4 3 -4 -2 -1 -12z"/>
<path d="M4000 1520 c0 -5 5 -10 11 -10 5 0 7 5 4 10 -3 6 -8 10 -11 10 -2 0
-4 -4 -4 -10z"/>
<path d="M2650 1870 c0 -5 5 -10 11 -10 5 0 7 5 4 10 -3 6 -8 10 -11 10 -2 0
-4 -4 -4 -10z"/>
<path d="M2720 1870 l-25 -8 28 -1 c15 -1 27 4 27 9 0 6 -1 10 -2 9 -2 -1 -14
-5 -28 -9z"/>
<path d="M2765 1871 c-2 -4 12 -7 31 -8 19 0 33 1 30 4 -7 8 -56 11 -61 4z"/>
<path d="M2868 1863 c7 -3 16 -2 19 1 4 3 -2 6 -13 5 -11 0 -14 -3 -6 -6z"/>
<path d="M3090 1320 c0 -5 5 -10 11 -10 5 0 7 5 4 10 -3 6 -8 10 -11 10 -2 0
-4 -4 -4 -10z"/>
<path d="M3150 1320 c-12 -7 -10 -9 7 -7 12 0 19 5 17 9 -6 10 -6 10 -24 -2z"/>
<path d="M2735 1310 c4 -7 105 -4 112 3 2 3 -23 5 -56 4 -33 -1 -58 -4 -56 -7z"/>
<path d="M2898 1313 c23 -2 59 -2 80 0 20 2 1 4 -43 4 -44 0 -61 -2 -37 -4z"/>
<path d="M3058 1313 c7 -3 16 -2 19 1 4 3 -2 6 -13 5 -11 0 -14 -3 -6 -6z"/>
<path d="M4096 1015 c4 -22 10 -47 15 -55 10 -18 0 46 -12 75 -6 13 -6 5 -3
-20z"/>
<path d="M4127 855 c3 -22 9 -47 14 -55 5 -9 6 2 2 25 -3 22 -9 47 -14 55 -5
9 -6 -2 -2 -25z"/>
<path d="M4151 720 c0 -8 4 -24 9 -35 5 -13 9 -14 9 -5 0 8 -4 24 -9 35 -5 13
-9 14 -9 5z"/>
<path d="M6575 159 c-18 -18 -69 -60 -127 -105 -53 -41 -76 -66 -45 -48 29 17
187 149 187 156 0 10 -2 10 -15 -3z"/>
</g>
</svg>
